freqDiv/simulation/qsim/feqDiv.msim.vcd
$comment
	File created using the following command:
		vcd file feqDiv.msim.vcd -direction
$end
$date
	Tue Nov 18 12:46:47 2025
$end
$version
	ModelSim Version 10.1d
$end
$timescale
	1ps
$end
$scope module feqDiv_vlg_vec_tst $end
$var reg 1 ! clock $end
$var reg 1 " Reset $end
$var wire 1 # S $end
$var wire 1 $ sampler $end
$scope module i1 $end
$var wire 1 % gnd $end
$var wire 1 & vcc $end
$var wire 1 ' unknown $end
$var tri1 1 ( devclrn $end
$var tri1 1 ) devpor $end
$var tri1 1 * devoe $end
$var wire 1 + S~output_o $end
$var wire 1 , clock~input_o $end
$var wire 1 - inst|inst~0_combout $end
$var wire 1 . inst|inst~feeder_combout $end
$var wire 1 / Reset~input_o $end
$var wire 1 0 inst|inst~q $end
$var wire 1 1 inst|inst1~0_combout $end
$var wire 1 2 inst|inst1~q $end
$var wire 1 3 inst|inst2~0_combout $end
$var wire 1 4 inst|inst2~feeder_combout $end
$var wire 1 5 inst|inst2~q $end
$var wire 1 6 inst|inst3~0_combout $end
$var wire 1 7 inst|inst3~q $end
$var wire 1 8 inst|inst4~0_combout $end
$var wire 1 9 inst|inst4~feeder_combout $end
$var wire 1 : inst|inst4~q $end
$var wire 1 ; inst9|inst~0_combout $end
$var wire 1 < inst9|inst~feeder_combout $end
$var wire 1 = inst9|inst~q $end
$var wire 1 > inst9|inst1~0_combout $end
$var wire 1 ? inst9|inst1~q $end
$var wire 1 @ inst9|inst2~0_combout $end
$var wire 1 A inst9|inst2~feeder_combout $end
$var wire 1 B inst9|inst2~q $end
$var wire 1 C inst9|inst3~0_combout $end
$var wire 1 D inst9|inst3~q $end
$var wire 1 E inst9|inst4~0_combout $end
$var wire 1 F inst9|inst4~feeder_combout $end
$var wire 1 G inst9|inst4~q $end
$var wire 1 H inst10|inst~0_combout $end
$var wire 1 I inst10|inst~q $end
$var wire 1 J inst10|inst1~0_combout $end
$var wire 1 K inst10|inst1~feeder_combout $end
$var wire 1 L inst10|inst1~q $end
$var wire 1 M inst10|inst2~0_combout $end
$var wire 1 N inst10|inst2~q $end
$var wire 1 O inst10|inst3~0_combout $end
$var wire 1 P inst10|inst3~feeder_combout $end
$var wire 1 Q inst10|inst3~q $end
$var wire 1 R inst10|inst4~0_combout $end
$var wire 1 S inst10|inst4~q $end
$var wire 1 T inst11|inst~0_combout $end
$var wire 1 U inst11|inst~feeder_combout $end
$var wire 1 V inst11|inst~q $end
$var wire 1 W inst11|inst1~0_combout $end
$var wire 1 X inst11|inst1~feeder_combout $end
$var wire 1 Y inst11|inst1~q $end
$var wire 1 Z inst11|inst2~0_combout $end
$var wire 1 [ inst11|inst2~feeder_combout $end
$var wire 1 \ inst11|inst2~q $end
$var wire 1 ] inst11|inst3~0_combout $end
$var wire 1 ^ inst11|inst3~q $end
$var wire 1 _ inst11|inst4~0_combout $end
$var wire 1 ` inst11|inst4~feeder_combout $end
$var wire 1 a inst11|inst4~q $end
$var wire 1 b inst12|inst~0_combout $end
$var wire 1 c inst12|inst~q $end
$var wire 1 d inst12|inst1~0_combout $end
$var wire 1 e inst12|inst1~feeder_combout $end
$var wire 1 f inst12|inst1~q $end
$var wire 1 g inst12|inst2~0_combout $end
$var wire 1 h inst12|inst2~q $end
$var wire 1 i inst12|inst3~0_combout $end
$var wire 1 j inst12|inst3~feeder_combout $end
$var wire 1 k inst12|inst3~q $end
$var wire 1 l inst12|inst4~0_combout $end
$var wire 1 m inst12|inst4~q $end
$upscope $end
$upscope $end
$enddefinitions $end
#0
$dumpvars
0!
1"
0#
x$
0%
1&
x'
1(
1)
1*
0+
0,
1-
1.
1/
00
11
02
13
14
05
16
07
18
19
0:
1;
1<
0=
1>
0?
1@
1A
0B
1C
0D
1E
1F
0G
1H
0I
1J
1K
0L
1M
0N
1O
1P
0Q
1R
0S
1T
1U
0V
1W
1X
0Y
1Z
1[
0\
1]
0^
1_
1`
0a
1b
0c
1d
1e
0f
1g
0h
1i
1j
0k
1l
0m
$end
#1000
1!
1,
0$
10
0-
0.
12
01
15
03
04
17
06
1:
08
09
1=
0;
0<
1?
0>
1B
0@
0A
1D
0C
1G
0E
0F
1I
0H
1L
0J
0K
1N
0M
1Q
0O
0P
1S
0R
1V
0T
0U
1Y
0W
0X
1\
0Z
0[
1^
0]
1a
0_
0`
1c
0b
1f
0d
0e
1h
0g
1k
0i
0j
1m
0l
1+
1#
#2000
0!
0,
1$
#3000
1!
1,
0$
00
1-
1.
#4000
0!
0,
1$
#5000
1!
1,
0$
10
0-
0.
02
11
#6000
0!
0,
1$
#7000
1!
1,
0$
00
1-
1.
#8000
0!
0,
1$
#9000
1!
1,
0$
10
0-
0.
12
01
05
13
14
#10000
0!
0,
1$
#11000
1!
1,
0$
00
1-
1.
#12000
0!
0,
1$
#13000
1!
1,
0$
10
0-
0.
02
11
#14000
0!
0,
1$
#15000
1!
1,
0$
00
1-
1.
#16000
0!
0,
1$
#17000
1!
1,
0$
10
0-
0.
12
01
15
03
04
07
16
#18000
0!
0,
1$
#19000
1!
1,
0$
00
1-
1.
#20000
0!
0,
1$
#21000
1!
1,
0$
10
0-
0.
02
11
#22000
0!
0,
1$
#23000
1!
1,
0$
00
1-
1.
#24000
0!
0,
1$
#25000
1!
1,
0$
10
0-
0.
12
01
05
13
14
#26000
0!
0,
1$
#27000
1!
1,
0$
00
1-
1.
#28000
0!
0,
1$
#29000
1!
1,
0$
10
0-
0.
02
11
#30000
0!
0,
1$
#31000
1!
1,
0$
00
1-
1.
#32000
0!
0,
1$
#33000
1!
1,
0$
10
0-
0.
12
01
15
03
04
17
06
0:
18
19
#34000
0!
0,
1$
#35000
1!
1,
0$
00
1-
1.
#36000
0!
0,
1$
#37000
1!
1,
0$
10
0-
0.
02
11
#38000
0!
0,
1$
#39000
1!
1,
0$
00
1-
1.
#40000
0!
0,
1$
#41000
1!
1,
0$
10
0-
0.
12
01
05
13
14
#42000
0!
0,
1$
#43000
1!
1,
0$
00
1-
1.
#44000
0!
0,
1$
#45000
1!
1,
0$
10
0-
0.
02
11
#46000
0!
0,
1$
#47000
1!
1,
0$
00
1-
1.
#48000
0!
0,
1$
#49000
1!
1,
0$
10
0-
0.
12
01
15
03
04
07
16
#50000
0!
0,
1$
#51000
1!
1,
0$
00
1-
1.
#52000
0!
0,
1$
#53000
1!
1,
0$
10
0-
0.
02
11
#54000
0!
0,
1$
#55000
1!
1,
0$
00
1-
1.
#56000
0!
0,
1$
#57000
1!
1,
0$
10
0-
0.
12
01
05
13
14
#58000
0!
0,
1$
#59000
1!
1,
0$
00
1-
1.
#60000
0!
0,
1$
#61000
1!
1,
0$
10
0-
0.
02
11
#62000
0!
0,
1$
#63000
1!
1,
0$
00
1-
1.
#64000
0!
0,
1$
#65000
1!
1,
0$
10
0-
0.
12
01
15
03
04
17
06
1:
08
09
0=
1;
1<
#66000
0!
0,
1$
#67000
1!
1,
0$
00
1-
1.
#68000
0!
0,
1$
#69000
1!
1,
0$
10
0-
0.
02
11
#70000
0!
0,
1$
#71000
1!
1,
0$
00
1-
1.
#72000
0!
0,
1$
#73000
1!
1,
0$
10
0-
0.
12
01
05
13
14
#74000
0!
0,
1$
#75000
1!
1,
0$
00
1-
1.
#76000
0!
0,
1$
#77000
1!
1,
0$
10
0-
0.
02
11
#78000
0!
0,
1$
#79000
1!
1,
0$
00
1-
1.
#80000
0!
0,
1$
#81000
1!
1,
0$
10
0-
0.
12
01
15
03
04
07
16
#82000
0!
0,
1$
#83000
1!
1,
0$
00
1-
1.
#84000
0!
0,
1$
#85000
1!
1,
0$
10
0-
0.
02
11
#86000
0!
0,
1$
#87000
1!
1,
0$
00
1-
1.
#88000
0!
0,
1$
#89000
1!
1,
0$
10
0-
0.
12
01
05
13
14
#90000
0!
0,
1$
#91000
1!
1,
0$
00
1-
1.
#92000
0!
0,
1$
#93000
1!
1,
0$
10
0-
0.
02
11
#94000
0!
0,
1$
#95000
1!
1,
0$
00
1-
1.
#96000
0!
0,
1$
#97000
1!
1,
0$
10
0-
0.
12
01
15
03
04
17
06
0:
18
19
#98000
0!
0,
1$
#99000
1!
1,
0$
00
1-
1.
#100000
0!
0,
1$
#101000
1!
1,
0$
10
0-
0.
02
11
#102000
0!
0,
1$
#103000
1!
1,
0$
00
1-
1.
#104000
0!
0,
1$
#105000
1!
1,
0$
10
0-
0.
12
01
05
13
14
#106000
0!
0,
1$
#107000
1!
1,
0$
00
1-
1.
#108000
0!
0,
1$
#109000
1!
1,
0$
10
0-
0.
02
11
#110000
0!
0,
1$
#111000
1!
1,
0$
00
1-
1.
#112000
0!
0,
1$
#113000
1!
1,
0$
10
0-
0.
12
01
15
03
04
07
16
#114000
0!
0,
1$
#115000
1!
1,
0$
00
1-
1.
#116000
0!
0,
1$
#117000
1!
1,
0$
10
0-
0.
02
11
#118000
0!
0,
1$
#119000
1!
1,
0$
00
1-
1.
#120000
0!
0,
1$
#121000
1!
1,
0$
10
0-
0.
12
01
05
13
14
#122000
0!
0,
1$
#123000
1!
1,
0$
00
1-
1.
#124000
0!
0,
1$
#125000
1!
1,
0$
10
0-
0.
02
11
#126000
0!
0,
1$
#127000
1!
1,
0$
00
1-
1.
#128000
0!
0,
1$
#129000
1!
1,
0$
10
0-
0.
12
01
15
03
04
17
06
1:
08
09
1=
0;
0<
0?
1>
#130000
0!
0,
1$
#131000
1!
1,
0$
00
1-
1.
#132000
0!
0,
1$
#133000
1!
1,
0$
10
0-
0.
02
11
#134000
0!
0,
1$
#135000
1!
1,
0$
00
1-
1.
#136000
0!
0,
1$
#137000
1!
1,
0$
10
0-
0.
12
01
05
13
14
#138000
0!
0,
1$
#139000
1!
1,
0$
00
1-
1.
#140000
0!
0,
1$
#141000
1!
1,
0$
10
0-
0.
02
11
#142000
0!
0,
1$
#143000
1!
1,
0$
00
1-
1.
#144000
0!
0,
1$
#145000
1!
1,
0$
10
0-
0.
12
01
15
03
04
07
16
#146000
0!
0,
1$
#147000
1!
1,
0$
00
1-
1.
#148000
0!
0,
1$
#149000
1!
1,
0$
10
0-
0.
02
11
#150000
0!
0,
1$
#151000
1!
1,
0$
00
1-
1.
#152000
0!
0,
1$
#153000
1!
1,
0$
10
0-
0.
12
01
05
13
14
#154000
0!
0,
1$
#155000
1!
1,
0$
00
1-
1.
#156000
0!
0,
1$
#157000
1!
1,
0$
10
0-
0.
02
11
#158000
0!
0,
1$
#159000
1!
1,
0$
00
1-
1.
#160000
0!
0,
1$
#161000
1!
1,
0$
10
0-
0.
12
01
15
03
04
17
06
0:
18
19
#162000
0!
0,
1$
#163000
1!
1,
0$
00
1-
1.
#164000
0!
0,
1$
#165000
1!
1,
0$
10
0-
0.
02
11
#166000
0!
0,
1$
#167000
1!
1,
0$
00
1-
1.
#168000
0!
0,
1$
#169000
1!
1,
0$
10
0-
0.
12
01
05
13
14
#170000
0!
0,
1$
#171000
1!
1,
0$
00
1-
1.
#172000
0!
0,
1$
#173000
1!
1,
0$
10
0-
0.
02
11
#174000
0!
0,
1$
#175000
1!
1,
0$
00
1-
1.
#176000
0!
0,
1$
#177000
1!
1,
0$
10
0-
0.
12
01
15
03
04
07
16
#178000
0!
0,
1$
#179000
1!
1,
0$
00
1-
1.
#180000
0!
0,
1$
#181000
1!
1,
0$
10
0-
0.
02
11
#182000
0!
0,
1$
#183000
1!
1,
0$
00
1-
1.
#184000
0!
0,
1$
#185000
1!
1,
0$
10
0-
0.
12
01
05
13
14
#186000
0!
0,
1$
#187000
1!
1,
0$
00
1-
1.
#188000
0!
0,
1$
#189000
1!
1,
0$
10
0-
0.
02
11
#190000
0!
0,
1$
#191000
1!
1,
0$
00
1-
1.
#192000
0!
0,
1$
#193000
1!
1,
0$
10
0-
0.
12
01
15
03
04
17
06
1:
08
09
0=
1;
1<
#194000
0!
0,
1$
#195000
1!
1,
0$
00
1-
1.
#196000
0!
0,
1$
#197000
1!
1,
0$
10
0-
0.
02
11
#198000
0!
0,
1$
#199000
1!
1,
0$
00
1-
1.
#200000
0!
0,
1$
#201000
1!
1,
0$
10
0-
0.
12
01
05
13
14
#202000
0!
0,
1$
#203000
1!
1,
0$
00
1-
1.
#204000
0!
0,
1$
#205000
1!
1,
0$
10
0-
0.
02
11
#206000
0!
0,
1$
#207000
1!
1,
0$
00
1-
1.
#208000
0!
0,
1$
#209000
1!
1,
0$
10
0-
0.
12
01
15
03
04
07
16
#210000
0!
0,
1$
#211000
1!
1,
0$
00
1-
1.
#212000
0!
0,
1$
#213000
1!
1,
0$
10
0-
0.
02
11
#214000
0!
0,
1$
#215000
1!
1,
0$
00
1-
1.
#216000
0!
0,
1$
#217000
1!
1,
0$
10
0-
0.
12
01
05
13
14
#218000
0!
0,
1$
#219000
1!
1,
0$
00
1-
1.
#220000
0!
0,
1$
#221000
1!
1,
0$
10
0-
0.
02
11
#222000
0!
0,
1$
#223000
1!
1,
0$
00
1-
1.
#224000
0!
0,
1$
#225000
1!
1,
0$
10
0-
0.
12
01
15
03
04
17
06
0:
18
19
#226000
0!
0,
1$
#227000
1!
1,
0$
00
1-
1.
#228000
0!
0,
1$
#229000
1!
1,
0$
10
0-
0.
02
11
#230000
0!
0,
1$
#231000
1!
1,
0$
00
1-
1.
#232000
0!
0,
1$
#233000
1!
1,
0$
10
0-
0.
12
01
05
13
14
#234000
0!
0,
1$
#235000
1!
1,
0$
00
1-
1.
#236000
0!
0,
1$
#237000
1!
1,
0$
10
0-
0.
02
11
#238000
0!
0,
1$
#239000
1!
1,
0$
00
1-
1.
#240000
0!
0,
1$
#241000
1!
1,
0$
10
0-
0.
12
01
15
03
04
07
16
#242000
0!
0,
1$
#243000
1!
1,
0$
00
1-
1.
#244000
0!
0,
1$
#245000
1!
1,
0$
10
0-
0.
02
11
#246000
0!
0,
1$
#247000
1!
1,
0$
00
1-
1.
#248000
0!
0,
1$
#249000
1!
1,
0$
10
0-
0.
12
01
05
13
14
#250000
0!
0,
1$
#251000
1!
1,
0$
00
1-
1.
#252000
0!
0,
1$
#253000
1!
1,
0$
10
0-
0.
02
11
#254000
0!
0,
1$
#255000
1!
1,
0$
00
1-
1.
#256000
0!
0,
1$
#257000
1!
1,
0$
10
0-
0.
12
01
15
03
04
17
06
1:
08
09
1=
0;
0<
1?
0>
0B
1@
1A
#258000
0!
0,
1$
#259000
1!
1,
0$
00
1-
1.
#260000
0!
0,
1$
#261000
1!
1,
0$
10
0-
0.
02
11
#262000
0!
0,
1$
#263000
1!
1,
0$
00
1-
1.
#264000
0!
0,
1$
#265000
1!
1,
0$
10
0-
0.
12
01
05
13
14
#266000
0!
0,
1$
#267000
1!
1,
0$
00
1-
1.
#268000
0!
0,
1$
#269000
1!
1,
0$
10
0-
0.
02
11
#270000
0!
0,
1$
#271000
1!
1,
0$
00
1-
1.
#272000
0!
0,
1$
#273000
1!
1,
0$
10
0-
0.
12
01
15
03
04
07
16
#274000
0!
0,
1$
#275000
1!
1,
0$
00
1-
1.
#276000
0!
0,
1$
#277000
1!
1,
0$
10
0-
0.
02
11
#278000
0!
0,
1$
#279000
1!
1,
0$
00
1-
1.
#280000
0!
0,
1$
#281000
1!
1,
0$
10
0-
0.
12
01
05
13
14
#282000
0!
0,
1$
#283000
1!
1,
0$
00
1-
1.
#284000
0!
0,
1$
#285000
1!
1,
0$
10
0-
0.
02
11
#286000
0!
0,
1$
#287000
1!
1,
0$
00
1-
1.
#288000
0!
0,
1$
#289000
1!
1,
0$
10
0-
0.
12
01
15
03
04
17
06
0:
18
19
#290000
0!
0,
1$
#291000
1!
1,
0$
00
1-
1.
#292000
0!
0,
1$
#293000
1!
1,
0$
10
0-
0.
02
11
#294000
0!
0,
1$
#295000
1!
1,
0$
00
1-
1.
#296000
0!
0,
1$
#297000
1!
1,
0$
10
0-
0.
12
01
05
13
14
#298000
0!
0,
1$
#299000
1!
1,
0$
00
1-
1.
#300000
0!
0,
1$
#301000
1!
1,
0$
10
0-
0.
02
11
#302000
0!
0,
1$
#303000
1!
1,
0$
00
1-
1.
#304000
0!
0,
1$
#305000
1!
1,
0$
10
0-
0.
12
01
15
03
04
07
16
#306000
0!
0,
1$
#307000
1!
1,
0$
00
1-
1.
#308000
0!
0,
1$
#309000
1!
1,
0$
10
0-
0.
02
11
#310000
0!
0,
1$
#311000
1!
1,
0$
00
1-
1.
#312000
0!
0,
1$
#313000
1!
1,
0$
10
0-
0.
12
01
05
13
14
#314000
0!
0,
1$
#315000
1!
1,
0$
00
1-
1.
#316000
0!
0,
1$
#317000
1!
1,
0$
10
0-
0.
02
11
#318000
0!
0,
1$
#319000
1!
1,
0$
00
1-
1.
#320000
0!
0,
1$
#321000
1!
1,
0$
10
0-
0.
12
01
15
03
04
17
06
1:
08
09
0=
1;
1<
#322000
0!
0,
1$
#323000
1!
1,
0$
00
1-
1.
#324000
0!
0,
1$
#325000
1!
1,
0$
10
0-
0.
02
11
#326000
0!
0,
1$
#327000
1!
1,
0$
00
1-
1.
#328000
0!
0,
1$
#329000
1!
1,
0$
10
0-
0.
12
01
05
13
14
#330000
0!
0,
1$
#331000
1!
1,
0$
00
1-
1.
#332000
0!
0,
1$
#333000
1!
1,
0$
10
0-
0.
02
11
#334000
0!
0,
1$
#335000
1!
1,
0$
00
1-
1.
#336000
0!
0,
1$
#337000
1!
1,
0$
10
0-
0.
12
01
15
03
04
07
16
#338000
0!
0,
1$
#339000
1!
1,
0$
00
1-
1.
#340000
0!
0,
1$
#341000
1!
1,
0$
10
0-
0.
02
11
#342000
0!
0,
1$
#343000
1!
1,
0$
00
1-
1.
#344000
0!
0,
1$
#345000
1!
1,
0$
10
0-
0.
12
01
05
13
14
#346000
0!
0,
1$
#347000
1!
1,
0$
00
1-
1.
#348000
0!
0,
1$
#349000
1!
1,
0$
10
0-
0.
02
11
#350000
0!
0,
1$
#351000
1!
1,
0$
00
1-
1.
#352000
0!
0,
1$
#353000
1!
1,
0$
10
0-
0.
12
01
15
03
04
17
06
0:
18
19
#354000
0!
0,
1$
#355000
1!
1,
0$
00
1-
1.
#356000
0!
0,
1$
#357000
1!
1,
0$
10
0-
0.
02
11
#358000
0!
0,
1$
#359000
1!
1,
0$
00
1-
1.
#360000
0!
0,
1$
#361000
1!
1,
0$
10
0-
0.
12
01
05
13
14
#362000
0!
0,
1$
#363000
1!
1,
0$
00
1-
1.
#364000
0!
0,
1$
#365000
1!
1,
0$
10
0-
0.
02
11
#366000
0!
0,
1$
#367000
1!
1,
0$
00
1-
1.
#368000
0!
0,
1$
#369000
1!
1,
0$
10
0-
0.
12
01
15
03
04
07
16
#370000
0!
0,
1$
#371000
1!
1,
0$
00
1-
1.
#372000
0!
0,
1$
#373000
1!
1,
0$
10
0-
0.
02
11
#374000
0!
0,
1$
#375000
1!
1,
0$
00
1-
1.
#376000
0!
0,
1$
#377000
1!
1,
0$
10
0-
0.
12
01
05
13
14
#378000
0!
0,
1$
#379000
1!
1,
0$
00
1-
1.
#380000
0!
0,
1$
#381000
1!
1,
0$
10
0-
0.
02
11
#382000
0!
0,
1$
#383000
1!
1,
0$
00
1-
1.
#384000
0!
0,
1$
#385000
1!
1,
0$
10
0-
0.
12
01
15
03
04
17
06
1:
08
09
1=
0;
0<
0?
1>
#386000
0!
0,
1$
#387000
1!
1,
0$
00
1-
1.
#388000
0!
0,
1$
#389000
1!
1,
0$
10
0-
0.
02
11
#390000
0!
0,
1$
#391000
1!
1,
0$
00
1-
1.
#392000
0!
0,
1$
#393000
1!
1,
0$
10
0-
0.
12
01
05
13
14
#394000
0!
0,
1$
#395000
1!
1,
0$
00
1-
1.
#396000
0!
0,
1$
#397000
1!
1,
0$
10
0-
0.
02
11
#398000
0!
0,
1$
#399000
1!
1,
0$
00
1-
1.
#400000
0!
0,
1$
#401000
1!
1,
0$
10
0-
0.
12
01
15
03
04
07
16
#402000
0!
0,
1$
#403000
1!
1,
0$
00
1-
1.
#404000
0!
0,
1$
#405000
1!
1,
0$
10
0-
0.
02
11
#406000
0!
0,
1$
#407000
1!
1,
0$
00
1-
1.
#408000
0!
0,
1$
#409000
1!
1,
0$
10
0-
0.
12
01
05
13
14
#410000
0!
0,
1$
#411000
1!
1,
0$
00
1-
1.
#412000
0!
0,
1$
#413000
1!
1,
0$
10
0-
0.
02
11
#414000
0!
0,
1$
#415000
1!
1,
0$
00
1-
1.
#416000
0!
0,
1$
#417000
1!
1,
0$
10
0-
0.
12
01
15
03
04
17
06
0:
18
19
#418000
0!
0,
1$
#419000
1!
1,
0$
00
1-
1.
#420000
0!
0,
1$
#421000
1!
1,
0$
10
0-
0.
02
11
#422000
0!
0,
1$
#423000
1!
1,
0$
00
1-
1.
#424000
0!
0,
1$
#425000
1!
1,
0$
10
0-
0.
12
01
05
13
14
#426000
0!
0,
1$
#427000
1!
1,
0$
00
1-
1.
#428000
0!
0,
1$
#429000
1!
1,
0$
10
0-
0.
02
11
#430000
0!
0,
1$
#431000
1!
1,
0$
00
1-
1.
#432000
0!
0,
1$
#433000
1!
1,
0$
10
0-
0.
12
01
15
03
04
07
16
#434000
0!
0,
1$
#435000
1!
1,
0$
00
1-
1.
#436000
0!
0,
1$
#437000
1!
1,
0$
10
0-
0.
02
11
#438000
0!
0,
1$
#439000
1!
1,
0$
00
1-
1.
#440000
0!
0,
1$
#441000
1!
1,
0$
10
0-
0.
12
01
05
13
14
#442000
0!
0,
1$
#443000
1!
1,
0$
00
1-
1.
#444000
0!
0,
1$
#445000
1!
1,
0$
10
0-
0.
02
11
#446000
0!
0,
1$
#447000
1!
1,
0$
00
1-
1.
#448000
0!
0,
1$
#449000
1!
1,
0$
10
0-
0.
12
01
15
03
04
17
06
1:
08
09
0=
1;
1<
#450000
0!
0,
1$
#451000
1!
1,
0$
00
1-
1.
#452000
0!
0,
1$
#453000
1!
1,
0$
10
0-
0.
02
11
#454000
0!
0,
1$
#455000
1!
1,
0$
00
1-
1.
#456000
0!
0,
1$
#457000
1!
1,
0$
10
0-
0.
12
01
05
13
14
#458000
0!
0,
1$
#459000
1!
1,
0$
00
1-
1.
#460000
0!
0,
1$
#461000
1!
1,
0$
10
0-
0.
02
11
#462000
0!
0,
1$
#463000
1!
1,
0$
00
1-
1.
#464000
0!
0,
1$
#465000
1!
1,
0$
10
0-
0.
12
01
15
03
04
07
16
#466000
0!
0,
1$
#467000
1!
1,
0$
00
1-
1.
#468000
0!
0,
1$
#469000
1!
1,
0$
10
0-
0.
02
11
#470000
0!
0,
1$
#471000
1!
1,
0$
00
1-
1.
#472000
0!
0,
1$
#473000
1!
1,
0$
10
0-
0.
12
01
05
13
14
#474000
0!
0,
1$
#475000
1!
1,
0$
00
1-
1.
#476000
0!
0,
1$
#477000
1!
1,
0$
10
0-
0.
02
11
#478000
0!
0,
1$
#479000
1!
1,
0$
00
1-
1.
#480000
0!
0,
1$
#481000
1!
1,
0$
10
0-
0.
12
01
15
03
04
17
06
0:
18
19
#482000
0!
0,
1$
#483000
1!
1,
0$
00
1-
1.
#484000
0!
0,
1$
#485000
1!
1,
0$
10
0-
0.
02
11
#486000
0!
0,
1$
#487000
1!
1,
0$
00
1-
1.
#488000
0!
0,
1$
#489000
1!
1,
0$
10
0-
0.
12
01
05
13
14
#490000
0!
0,
1$
#491000
1!
1,
0$
00
1-
1.
#492000
0!
0,
1$
#493000
1!
1,
0$
10
0-
0.
02
11
#494000
0!
0,
1$
#495000
1!
1,
0$
00
1-
1.
#496000
0!
0,
1$
#497000
1!
1,
0$
10
0-
0.
12
01
15
03
04
07
16
#498000
0!
0,
1$
#499000
1!
1,
0$
00
1-
1.
#500000
0!
0,
1$
#501000
1!
1,
0$
10
0-
0.
02
11
#502000
0!
0,
1$
#503000
1!
1,
0$
00
1-
1.
#504000
0!
0,
1$
#505000
1!
1,
0$
10
0-
0.
12
01
05
13
14
#506000
0!
0,
1$
#507000
1!
1,
0$
00
1-
1.
#508000
0!
0,
1$
#509000
1!
1,
0$
10
0-
0.
02
11
#510000
0!
0,
1$
#511000
1!
1,
0$
00
1-
1.
#512000
0!
0,
1$
#513000
1!
1,
0$
10
0-
0.
12
01
15
03
04
17
06
1:
08
09
1=
0;
0<
1?
0>
1B
0@
0A
0D
1C
#514000
0!
0,
1$
#515000
1!
1,
0$
00
1-
1.
#516000
0!
0,
1$
#517000
1!
1,
0$
10
0-
0.
02
11
#518000
0!
0,
1$
#519000
1!
1,
0$
00
1-
1.
#520000
0!
0,
1$
#521000
1!
1,
0$
10
0-
0.
12
01
05
13
14
#522000
0!
0,
1$
#523000
1!
1,
0$
00
1-
1.
#524000
0!
0,
1$
#525000
1!
1,
0$
10
0-
0.
02
11
#526000
0!
0,
1$
#527000
1!
1,
0$
00
1-
1.
#528000
0!
0,
1$
#529000
1!
1,
0$
10
0-
0.
12
01
15
03
04
07
16
#530000
0!
0,
1$
#531000
1!
1,
0$
00
1-
1.
#532000
0!
0,
1$
#533000
1!
1,
0$
10
0-
0.
02
11
#534000
0!
0,
1$
#535000
1!
1,
0$
00
1-
1.
#536000
0!
0,
1$
#537000
1!
1,
0$
10
0-
0.
12
01
05
13
14
#538000
0!
0,
1$
#539000
1!
1,
0$
00
1-
1.
#540000
0!
0,
1$
#541000
1!
1,
0$
10
0-
0.
02
11
#542000
0!
0,
1$
#543000
1!
1,
0$
00
1-
1.
#544000
0!
0,
1$
#545000
1!
1,
0$
10
0-
0.
12
01
15
03
04
17
06
0:
18
19
#546000
0!
0,
1$
#547000
1!
1,
0$
00
1-
1.
#548000
0!
0,
1$
#549000
1!
1,
0$
10
0-
0.
02
11
#550000
0!
0,
1$
#551000
1!
1,
0$
00
1-
1.
#552000
0!
0,
1$
#553000
1!
1,
0$
10
0-
0.
12
01
05
13
14
#554000
0!
0,
1$
#555000
1!
1,
0$
00
1-
1.
#556000
0!
0,
1$
#557000
1!
1,
0$
10
0-
0.
02
11
#558000
0!
0,
1$
#559000
1!
1,
0$
00
1-
1.
#560000
0!
0,
1$
#561000
1!
1,
0$
10
0-
0.
12
01
15
03
04
07
16
#562000
0!
0,
1$
#563000
1!
1,
0$
00
1-
1.
#564000
0!
0,
1$
#565000
1!
1,
0$
10
0-
0.
02
11
#566000
0!
0,
1$
#567000
1!
1,
0$
00
1-
1.
#568000
0!
0,
1$
#569000
1!
1,
0$
10
0-
0.
12
01
05
13
14
#570000
0!
0,
1$
#571000
1!
1,
0$
00
1-
1.
#572000
0!
0,
1$
#573000
1!
1,
0$
10
0-
0.
02
11
#574000
0!
0,
1$
#575000
1!
1,
0$
00
1-
1.
#576000
0!
0,
1$
#577000
1!
1,
0$
10
0-
0.
12
01
15
03
04
17
06
1:
08
09
0=
1;
1<
#578000
0!
0,
1$
#579000
1!
1,
0$
00
1-
1.
#580000
0!
0,
1$
#581000
1!
1,
0$
10
0-
0.
02
11
#582000
0!
0,
1$
#583000
1!
1,
0$
00
1-
1.
#584000
0!
0,
1$
#585000
1!
1,
0$
10
0-
0.
12
01
05
13
14
#586000
0!
0,
1$
#587000
1!
1,
0$
00
1-
1.
#588000
0!
0,
1$
#589000
1!
1,
0$
10
0-
0.
02
11
#590000
0!
0,
1$
#591000
1!
1,
0$
00
1-
1.
#592000
0!
0,
1$
#593000
1!
1,
0$
10
0-
0.
12
01
15
03
04
07
16
#594000
0!
0,
1$
#595000
1!
1,
0$
00
1-
1.
#596000
0!
0,
1$
#597000
1!
1,
0$
10
0-
0.
02
11
#598000
0!
0,
1$
#599000
1!
1,
0$
00
1-
1.
#600000
0!
0,
1$
#601000
1!
1,
0$
10
0-
0.
12
01
05
13
14
#602000
0!
0,
1$
#603000
1!
1,
0$
00
1-
1.
#604000
0!
0,
1$
#605000
1!
1,
0$
10
0-
0.
02
11
#606000
0!
0,
1$
#607000
1!
1,
0$
00
1-
1.
#608000
0!
0,
1$
#609000
1!
1,
0$
10
0-
0.
12
01
15
03
04
17
06
0:
18
19
#610000
0!
0,
1$
#611000
1!
1,
0$
00
1-
1.
#612000
0!
0,
1$
#613000
1!
1,
0$
10
0-
0.
02
11
#614000
0!
0,
1$
#615000
1!
1,
0$
00
1-
1.
#616000
0!
0,
1$
#617000
1!
1,
0$
10
0-
0.
12
01
05
13
14
#618000
0!
0,
1$
#619000
1!
1,
0$
00
1-
1.
#620000
0!
0,
1$
#621000
1!
1,
0$
10
0-
0.
02
11
#622000
0!
0,
1$
#623000
1!
1,
0$
00
1-
1.
#624000
0!
0,
1$
#625000
1!
1,
0$
10
0-
0.
12
01
15
03
04
07
16
#626000
0!
0,
1$
#627000
1!
1,
0$
00
1-
1.
#628000
0!
0,
1$
#629000
1!
1,
0$
10
0-
0.
02
11
#630000
0!
0,
1$
#631000
1!
1,
0$
00
1-
1.
#632000
0!
0,
1$
#633000
1!
1,
0$
10
0-
0.
12
01
05
13
14
#634000
0!
0,
1$
#635000
1!
1,
0$
00
1-
1.
#636000
0!
0,
1$
#637000
1!
1,
0$
10
0-
0.
02
11
#638000
0!
0,
1$
#639000
1!
1,
0$
00
1-
1.
#640000
0!
0,
1$
#641000
1!
1,
0$
10
0-
0.
12
01
15
03
04
17
06
1:
08
09
1=
0;
0<
0?
1>
#642000
0!
0,
1$
#643000
1!
1,
0$
00
1-
1.
#644000
0!
0,
1$
#645000
1!
1,
0$
10
0-
0.
02
11
#646000
0!
0,
1$
#647000
1!
1,
0$
00
1-
1.
#648000
0!
0,
1$
#649000
1!
1,
0$
10
0-
0.
12
01
05
13
14
#650000
0!
0,
1$
#651000
1!
1,
0$
00
1-
1.
#652000
0!
0,
1$
#653000
1!
1,
0$
10
0-
0.
02
11
#654000
0!
0,
1$
#655000
1!
1,
0$
00
1-
1.
#656000
0!
0,
1$
#657000
1!
1,
0$
10
0-
0.
12
01
15
03
04
07
16
#658000
0!
0,
1$
