MUX8bit/simulation/qsim/Multiplexador.msim.vcd
$comment
	File created using the following command:
		vcd file Multiplexador.msim.vcd -direction
$end
$date
	Thu Sep 25 11:24:38 2025
$end
$version
	ModelSim Version 10.1d
$end
$timescale
	1ps
$end
$scope module Mux8bit_vlg_vec_tst $end
$var reg 8 ! A [7:0] $end
$var reg 8 " B [7:0] $end
$var reg 1 # Sel $end
$var wire 1 $ Z [7] $end
$var wire 1 % Z [6] $end
$var wire 1 & Z [5] $end
$var wire 1 ' Z [4] $end
$var wire 1 ( Z [3] $end
$var wire 1 ) Z [2] $end
$var wire 1 * Z [1] $end
$var wire 1 + Z [0] $end
$var wire 1 , sampler $end
$scope module i1 $end
$var wire 1 - gnd $end
$var wire 1 . vcc $end
$var wire 1 / unknown $end
$var tri1 1 0 devclrn $end
$var tri1 1 1 devpor $end
$var tri1 1 2 devoe $end
$var wire 1 3 Z[7]~output_o $end
$var wire 1 4 Z[6]~output_o $end
$var wire 1 5 Z[5]~output_o $end
$var wire 1 6 Z[4]~output_o $end
$var wire 1 7 Z[3]~output_o $end
$var wire 1 8 Z[2]~output_o $end
$var wire 1 9 Z[1]~output_o $end
$var wire 1 : Z[0]~output_o $end
$var wire 1 ; B[7]~input_o $end
$var wire 1 < A[7]~input_o $end
$var wire 1 = Sel~input_o $end
$var wire 1 > inst7|inst5~0_combout $end
$var wire 1 ? A[6]~input_o $end
$var wire 1 @ B[6]~input_o $end
$var wire 1 A inst6|inst5~0_combout $end
$var wire 1 B A[5]~input_o $end
$var wire 1 C B[5]~input_o $end
$var wire 1 D inst5|inst5~0_combout $end
$var wire 1 E A[4]~input_o $end
$var wire 1 F B[4]~input_o $end
$var wire 1 G inst4|inst5~0_combout $end
$var wire 1 H A[3]~input_o $end
$var wire 1 I B[3]~input_o $end
$var wire 1 J inst3|inst5~0_combout $end
$var wire 1 K A[2]~input_o $end
$var wire 1 L B[2]~input_o $end
$var wire 1 M inst2|inst5~0_combout $end
$var wire 1 N B[1]~input_o $end
$var wire 1 O A[1]~input_o $end
$var wire 1 P inst1|inst5~0_combout $end
$var wire 1 Q A[0]~input_o $end
$var wire 1 R B[0]~input_o $end
$var wire 1 S inst|inst5~0_combout $end
$upscope $end
$upscope $end
$enddefinitions $end
#0
$dumpvars
b0 !
b0 "
1#
x+
x*
x)
x(
x'
x&
x%
x$
x,
0-
1.
x/
10
11
12
x3
x4
x5
x6
x7
x8
x9
x:
0;
0<
1=
x>
0?
0@
xA
0B
0C
xD
0E
0F
xG
0H
0I
xJ
0K
0L
xM
0N
0O
xP
0Q
0R
xS
$end
#1872
0M
#3961
0J
#4196
0>
#4239
0S
#4349
0G
#4533
0D
#4648
0A
#4743
0P
#4855
08
0)
#7150
0:
0+
#7667
04
0%
#7812
09
0*
#8725
06
0'
#8866
05
0&
#8867
07
0(
#8997
03
0$
#10000
b10000000 !
b11000000 !
b11100000 !
b11110000 !
b11111000 !
b11111100 !
b11111110 !
b11111111 !
0,
#10507
1?
1H
1Q
#10515
1O
#10517
1B
1K
#10545
1E
#10555
1<
#30000
0#
1,
#30711
0=
#35153
1P
1S
#35154
1J
#35155
1>
1M
#35446
1A
#35447
1D
#35448
1G
#38184
1:
1+
#38254
18
1)
#38341
19
1*
#38585
14
1%
#39813
15
1&
#39916
16
1'
#39940
13
1$
#40125
17
1(
#60000
1#
0,
#60537
1=
#64613
0P
0S
#64614
0J
#64615
0>
0M
#64907
0A
#64908
0D
#64909
0G
#67524
0:
0+
#67598
08
0)
#67682
09
0*
#67926
04
0%
#69241
05
0&
#69285
06
0'
#69416
03
0$
#69520
07
0(
#90000
0#
1,
#90711
0=
#95153
1P
1S
#95154
1J
#95155
1>
1M
#95446
1A
#95447
1D
#95448
1G
#98184
1:
1+
#98254
18
1)
#98341
19
1*
#98585
14
1%
#99813
15
1&
#99916
16
1'
#99940
13
1$
#100125
17
1(
#120000
1#
0,
#120537
1=
#124613
0P
0S
#124614
0J
#124615
0>
0M
#124907
0A
#124908
0D
#124909
0G
#127524
0:
0+
#127598
08
0)
#127682
09
0*
#127926
04
0%
#129241
05
0&
#129285
06
0'
#129416
03
0$
#129520
07
0(
#150000
0#
1,
#150711
0=
#155153
1P
1S
#155154
1J
#155155
1>
1M
#155446
1A
#155447
1D
#155448
1G
#158184
1:
1+
#158254
18
1)
#158341
19
1*
#158585
14
1%
#159813
15
1&
#159916
16
1'
#159940
13
1$
#160125
17
1(
#180000
1#
0,
#180537
1=
#184613
0P
0S
#184614
0J
#184615
0>
0M
#184907
0A
#184908
0D
#184909
0G
#187524
0:
0+
#187598
08
0)
#187682
09
0*
#187926
04
0%
#189241
05
0&
#189285
06
0'
#189416
03
0$
#189520
07
0(
#220000
b1111111 !
b111111 !
b11111 !
b1111 !
b1011 !
b1010 !
1,
#220681
0?
0Q
#220691
0B
0K
#220718
0E
#220728
0<
#240000
0#
0,
#240711
0=
#245153
1P
#245154
1J
#248341
19
1*
#250125
17
1(
#300000
1#
1,
#300537
1=
#304613
0P
#304614
0J
#307682
09
0*
#309520
07
0(
#480000
b10000000 "
b10100000 "
b10110000 "
b10111000 "
b10111010 "
b10111011 "
b10 !
b0 !
0,
#480497
1C
1N
#480507
1I
#480517
1F
#480525
1R
#480527
1;
#480681
0H
#480688
0O
#484126
1>
#484230
1J
#484463
1S
#484574
1G
#484667
1D
#484895
1P
#487494
1:
1+
#488083
19
1*
#488911
13
1$
#489033
15
1&
#489042
16
1'
#489201
17
1(
#510000
0#
1,
#510711
0=
#515143
0P
0S
#515144
0J
#515145
0>
#515446
0D
#515447
0G
#518054
0:
0+
#518212
09
0*
#519779
05
0&
#519823
06
0'
#519946
03
0$
#520050
07
0(
#600000
1#
0,
#600537
1=
#604623
1P
1S
#604624
1J
#604625
1>
#604909
1D
#604910
1G
#607654
1:
1+
#607811
19
1*
#609275
15
1&
#609378
16
1'
#609410
13
1$
#609595
17
1(
#690000
0#
1,
#690711
0=
#695143
0P
0S
#695144
0J
#695145
0>
#695446
0D
#695447
0G
#698054
0:
0+
#698212
09
0*
#699779
05
0&
#699823
06
0'
#699946
03
0$
#700050
07
0(
#720000
b10111111 "
b111111 "
b11111 "
b1111 "
b1101 "
b1100 "
1#
0,
#720517
1L
#720537
1=
#720671
0C
0N
#720691
0F
#720698
0R
#720701
0;
#724623
1P
1S
#724624
1J
#724625
1M
#724909
1D
#724937
0S
#725204
0D
#725414
0P
#727724
18
1)
#729595
17
1(
#780000
0#
1,
#780711
0=
#785144
0J
#785145
0M
#788128
08
0)
#790050
07
0(
#840000
1#
0,
#840537
1=
#844624
1J
#844625
1M
#847724
18
1)
#849595
17
1(
#960000
b100 "
b10 !
b0 "
b100000 "
1,
#960497
1C
#960515
1O
#960681
0I
#960691
0L
#962410
0M
#964642
0J
#964667
1D
#965393
08
0)
#969033
15
1&
#969548
07
0(
#990000
b100001 "
0,
#990525
1R
#994463
1S
#997494
1:
1+
